'53915A',2014,192.471,77
'55280A',2014,184.023,12
'55280B',2014,122.554,81
'55599A',2014,129.593,72
'55638A',2014,237.098,66
'55756A',2014,157.507,40
'57985A',2014,236.943,29
'57985B',2014,122.737,103
'58493A',2014,163.418,12
'58493B',2014,76.8243,121
'58559A',2014,129.169,83
'59034A',2014,137.278,93
'62469A',2014,70.6069,118
'62505A',2014,71.3176,125
'63278A',2014,181.935,19
'63278B',2014,132.457,69
'64760A',2014,193.698,19
'64760B',2014,122.021,90
'66094A',2014,190.444,2
'66244A',2014,276.698,4
'66624A',2014,317.654,12
'67384A',2014,140.748,29
'67443A',2014,216.063,47
'67443B',2014,246.284,62
'67445A',2014,171.439,59
'67446A',2014,176.886,19
'67447A',2014,207.548,3
'67448A',2014,311.94,5
'67448B',2014,246.599,29
'67566A',2014,177.047,40
'67808A',2014,112.6,80
'67808B',2014,79.7456,122
'67820A',2014,173.093,29
'67823A',2014,171.015,50
'67823B',2014,138.906,96
'67853A',2014,116.922,100
'67853B',2014,90.7973,120
'68534A',2014,150.433,115
'68933A',2014,348.436,12
'68933B',2014,214.284,12
'69801A',2014,193.098,19
'69973A',2014,127.07,86
'69973B',2014,90.5048,114
'69973C',2014,56.8995,127
'70000A',2014,215.942,5
'70000B',2014,151.896,29
'70060A',2014,125.923,29
'70075A',2014,155.245,12
'70075B',2014,128.718,75
'70359A',2014,157.012,60
'70477A',2014,176.677,8
'70525A',2014,241.498,82
'70564A',2014,188.894,61
'70564B',2014,141.288,70
'70763A',2014,263.519,19
'70763B',2014,174.887,29
'70763C',2014,169.114,85
'70804A',2014,206.767,19
'70835A',2014,149.981,58
'70953A',2014,190.078,8
'70953B',2014,196.484,40
'71095A',2014,220.055,79
'71222A',2014,187.684,84
'71222B',2014,143.0,68
'71268A',2014,114.697,101
'71335A',2014,126.652,65
'71353A',2014,110.245,95
'71364A',2014,104.898,87
'71374A',2014,211.577,5
'71380A',2014,192.152,48
'71380B',2014,128.93,108
'71448A',2014,260.712,8
'71448B',2014,211.519,63
'71448C',2014,125.569,112
'71487A',2014,205.812,76
'71487B',2014,73.8356,126
'71550A',2014,138.526,94
'71550B',2014,94.2227,106
'71595A',2014,137.602,54
'71615A',2014,152.043,57
'71691A',2014,154.862,19
'71722A',2014,103.547,78
'71763A',2014,153.589,55
'71773A',2014,163.515,56
'71774A',2014,125.083,64
'71777A',2014,205.268,19
'71808A',2014,117.133,113
'71821A',2014,190.833,29
'71821B',2014,124.06,73
'71975A',2014,184.034,8
'72035A',2014,101.897,99
'72211A',2014,104.759,40
'72230A',2014,151.198,52
'72230B',2014,118.816,97
'72454A',2014,118.702,88
'72823A',2014,125.836,67
'72955A',2014,338.051,46
'72977A',2014,215.902,105
'73009A',2014,137.159,51
'73009B',2014,87.165,116
'73055A',2014,232.543,29
'73659A',2014,208.41,19
'73712A',2014,152.173,19
'73712B',2014,175.375,40
'73811A',2014,116.417,124
'73904A',2014,160.668,71
'73954A',2014,179.044,29
'74268A',2014,131.599,89
'74360A',2014,205.253,1
'74549A',2014,137.338,53
'74576A',2014,122.925,74
'74579A',2014,175.162,98
'74580A',2014,194.486,110
'74580B',2014,94.1377,119
'74914A',2014,111.509,109
'74992A',2014,103.277,102
'75058A',2014,179.969,40
'75058B',2014,142.08,92
'76848A',2014,181.317,29
'76856A',2014,71.9251,107
'76868A',2014,95.3072,104
'76873A',2014,153.892,49
'76873B',2014,155.256,111
'76933A',2014,172.459,12
'77185A',2014,107.242,117
'77319A',2014,140.145,123
'77354A',2014,110.072,91
