'55930A',2018,75.7133,162
'57985A',2018,145.445,118
'59017A',2018,69.5781,181
'59034A',2018,60.5227,188
'61112A',2018,217.215,83
'61171A',2018,173.282,144
'61323A',2018,189.147,170
'61323B',2018,162.366,165
'61703A',2018,70.8617,179
'63278A',2018,259.032,8
'63278B',2018,172.843,21
'63337A',2018,177.966,33
'63492A',2018,240.735,49
'63492B',2018,159.081,105
'63492C',2018,134.809,49
'64760A',2018,224.432,8
'65082A',2018,232.041,79
'65859A',2018,185.255,21
'65859B',2018,133.829,145
'65859C',2018,95.6158,175
'66172A',2018,166.737,33
'66244A',2018,190.424,49
'66624A',2018,266.092,21
'66956A',2018,127.935,106
'67443A',2018,132.496,21
'67443B',2018,149.876,123
'67448A',2018,250.275,21
'67448B',2018,230.031,81
'67448C',2018,163.272,168
'67808A',2018,119.073,141
'67812A',2018,136.448,80
'67820A',2018,163.697,85
'67820B',2018,141.336,62
'67823A',2018,150.291,21
'67823B',2018,120.593,174
'67864A',2018,85.6174,173
'67864B',2018,45.0593,192
'68828A',2018,147.778,5
'68933A',2018,125.81,154
'69685A',2018,194.799,71
'69960A',2018,108.309,116
'70000A',2018,227.072,3
'70000B',2018,155.884,75
'70030A',2018,190.695,13
'70030B',2018,161.701,90
'70030C',2018,164.883,127
'70031A',2018,171.448,8
'70049A',2018,212.229,149
'70075A',2018,154.702,62
'70096A',2018,257.179,62
'70156A',2018,243.424,21
'70359A',2018,212.028,33
'70470A',2018,148.529,62
'70470B',2018,160.373,62
'70517A',2018,181.882,125
'70526A',2018,170.427,62
'70561A',2018,161.879,33
'70564A',2018,194.378,13
'70564B',2018,227.516,126
'70699A',2018,163.223,167
'70733A',2018,101.771,187
'70763A',2018,134.26,99
'70763B',2018,109.837,147
'70804A',2018,189.787,13
'70804B',2018,262.521,124
'70816A',2018,120.826,142
'70953A',2018,169.052,13
'70953B',2018,99.4971,172
'71050A',2018,173.076,150
'71089A',2018,143.991,166
'71163A',2018,229.223,8
'71163B',2018,149.396,96
'71182A',2018,61.3477,186
'71222A',2018,156.278,49
'71222B',2018,141.563,133
'71222C',2018,127.613,111
'71364A',2018,101.914,21
'71374A',2018,199.453,33
'71380A',2018,204.76,33
'71380B',2018,115.09,158
'71448A',2018,203.109,5
'71448B',2018,180.127,8
'71448C',2018,140.227,132
'71550A',2018,122.846,146
'71550B',2018,147.531,152
'71610A',2018,156.9,21
'71615A',2018,110.816,163
'71633A',2018,124.327,143
'71633B',2018,102.169,185
'71668A',2018,210.822,13
'71691A',2018,113.071,101
'71691B',2018,204.921,161
'71763A',2018,123.347,115
'71773A',2018,206.507,4
'71773B',2018,146.42,49
'71773C',2018,126.077,98
'71839A',2018,150.972,103
'71946A',2018,99.676,160
'71974A',2018,177.319,49
'71975A',2018,172.275,88
'72004A',2018,139.865,164
'72094A',2018,125.598,138
'72124A',2018,122.511,191
'72150A',2018,182.507,33
'72168A',2018,97.9643,120
'72230A',2018,124.994,97
'72454A',2018,76.5894,159
'72949A',2018,114.695,113
'72949B',2018,163.521,49
'72955A',2018,218.5,89
'73015A',2018,214.122,5
'73015B',2018,204.889,73
'73055A',2018,149.994,82
'73486A',2018,227.87,13
'73486B',2018,169.803,62
'73502A',2018,232.17,87
'73559A',2018,243.272,33
'73560A',2018,133.891,21
'73676A',2018,181.754,33
'73712A',2018,184.763,74
'73712B',2018,152.63,49
'73904A',2018,206.877,33
'73904B',2018,145.35,92
'73954A',2018,130.578,49
'74064A',2018,125.595,104
'74111A',2018,109.445,136
'74268A',2018,132.171,49
'74311A',2018,97.9563,122
'74360A',2018,141.967,108
'74514A',2018,70.9407,184
'74773A',2018,139.487,176
'74899A',2018,109.258,182
'75005A',2018,363.969,70
'75058A',2018,237.18,62
'75447A',2018,177.042,33
'75981A',2018,153.374,21
'76844A',2018,114.315,139
'76933A',2018,162.373,107
'76933B',2018,119.943,151
'77067A',2018,127.26,169
'77136A',2018,166.692,49
'77196A',2018,219.369,95
'77319A',2018,197.906,148
'77332A',2018,170.17,137
'77488A',2018,169.373,78
'77488B',2018,121.016,131
'77488C',2018,91.3288,121
'77519A',2018,166.323,76
'77553A',2018,109.954,177
'78014A',2018,123.709,13
'78108A',2018,173.561,72
'78426A',2018,138.343,171
'78535A',2018,193.131,21
'78544A',2018,150.069,129
'78554A',2018,199.373,33
'78563A',2018,138.466,130
'78710A',2018,137.245,102
'78746A',2018,141.024,140
'78861A',2018,138.611,1
'79029A',2018,191.303,33
'79180A',2018,179.024,93
'79986A',2018,171.112,86
'80053A',2018,141.96,33
'80164A',2018,60.6981,183
'82053A',2018,117.688,94
'82060A',2018,175.344,13
'82075A',2018,149.4,33
'82374A',2018,176.902,77
'82374B',2018,221.697,134
'82469A',2018,273.49,2
'82469B',2018,116.422,155
'82498A',2018,122.868,110
'82928A',2018,123.388,180
'82993A',2018,118.762,190
'83141A',2018,160.072,49
'83180A',2018,93.4188,153
'83453A',2018,113.073,84
'84341A',2018,110.075,117
'85681A',2018,128.884,119
'85706A',2018,109.555,178
'86294A',2018,147.038,157
'86295A',2018,134.968,135
'86612A',2018,126.281,128
'86612B',2018,61.1975,189
'87330A',2018,142.0,49
'87368A',2018,115.158,114
'88985A',2018,133.709,91
'89160A',2018,113.863,112
'89857A',2018,151.879,156
'90211A',2018,113.384,109
'A',2018,151.359,33
'B',2018,170.219,100
